%YAML 1.1
%TAG !u! tag:unity3d.com,2011:
--- !u!114 &11400000
MonoBehaviour:
  m_ObjectHideFlags: 0
  m_CorrespondingSourceObject: {fileID: 0}
  m_PrefabInstance: {fileID: 0}
  m_PrefabAsset: {fileID: 0}
  m_GameObject: {fileID: 0}
  m_Enabled: 1
  m_EditorHideFlags: 0
  m_Script: {fileID: 11500000, guid: 9bdb996b7734cca42be2d276c33c21f7, type: 3}
  m_Name: DistCharged
  m_EditorClassIdentifier: 
  Hits:
  - {fileID: 11400000, guid: 16ecbafe91ff2c14eb81f66870423dc0, type: 2}
