%YAML 1.1
%TAG !u! tag:unity3d.com,2011:
--- !u!114 &11400000
MonoBehaviour:
  m_ObjectHideFlags: 0
  m_CorrespondingSourceObject: {fileID: 0}
  m_PrefabInstance: {fileID: 0}
  m_PrefabAsset: {fileID: 0}
  m_GameObject: {fileID: 0}
  m_Enabled: 1
  m_EditorHideFlags: 0
  m_Script: {fileID: 11500000, guid: 8e925548c5694a3479c8f5604bdd7cf6, type: 3}
  m_Name: Melee2
  m_EditorClassIdentifier: 
  Action: 1
  ChargingAttack: 0
  MinTimePress: 0
  MaxTimePress: 0.25
  AnticipationTime: 0.125
  RecoveryTime: 0.125
  Damage: 55
  MinDamage: 10
  DamageProgression:
    serializedVersion: 2
    m_Curve:
    - serializedVersion: 3
      time: 0
      value: 0
      inSlope: 0
      outSlope: 1
      tangentMode: 0
      weightedMode: 0
      inWeight: 0
      outWeight: 0
    - serializedVersion: 3
      time: 1
      value: 1
      inSlope: 1
      outSlope: 0
      tangentMode: 0
      weightedMode: 0
      inWeight: 0
      outWeight: 0
    m_PreInfinity: 2
    m_PostInfinity: 2
    m_RotationOrder: 4
  Range: {x: 0, y: 0, z: 1}
  AreaOfAttack: 0.5
  NbParticule: 60
  Duration: 0.1
  LifeDuration: {x: 0.1, y: 0.5}
  Velocity: 10
  ColorOverLife:
    serializedVersion: 2
    key0: {r: 0.4433962, g: 0, b: 0, a: 0}
    key1: {r: 0.4433962, g: 0, b: 0, a: 1}
    key2: {r: 0, g: 0, b: 0, a: 1}
    key3: {r: 0, g: 0, b: 0, a: 0}
    key4: {r: 0, g: 0, b: 0, a: 0}
    key5: {r: 0, g: 0, b: 0, a: 0}
    key6: {r: 0, g: 0, b: 0, a: 0}
    key7: {r: 0, g: 0, b: 0, a: 0}
    ctime0: 0
    ctime1: 65535
    ctime2: 0
    ctime3: 0
    ctime4: 0
    ctime5: 0
    ctime6: 0
    ctime7: 0
    atime0: 0
    atime1: 19661
    atime2: 45682
    atime3: 65535
    atime4: 0
    atime5: 0
    atime6: 0
    atime7: 0
    m_Mode: 0
    m_NumColorKeys: 2
    m_NumAlphaKeys: 4
  ParticuleTexture: {fileID: 2800000, guid: ca91f61cf2e918d41a925143c90c462e, type: 3}
